ip,anonymityLevel,asn,country,isp,latency,org,port,protocols,responseTime,speed,updated_at,upTime,upTimeSuccessCount,upTimeTryCount
"43.153.174.4","elite","AS132203","JP","Shenzhen Tencent Computer Systems Company Limited","247","Tencent Cloud Computing","443","socks5","4799","7","2024-07-07T01:05:19.302Z","69","5135","7459"
"152.70.104.79","elite","AS31898","JP","Oracle Corporation","303","Oracle Cloud Infrastructure (ap-tokyo-1)","1080","socks5","2682","1","2024-07-07T01:01:25.796Z","99","715","720"
"153.127.42.160","elite","AS7684","JP","SAKURA Internet Inc.","286","SAKURA","3128","socks5","1295","4","2024-07-07T00:03:43.409Z","38","2860","7458"
"103.250.73.178","elite","AS17819","JP","UPRIGHT","294","Upright Inc.","8444","socks5","3899","93","2024-07-07T00:02:01.294Z","100","7460","7482"
"43.153.175.43","elite","AS132203","JP","Shenzhen Tencent Computer Systems Company Limited","286","Tencent Cloud Computing","443","socks5","4598","1","2024-07-06T23:58:30.191Z","96","7089","7404"
"43.153.168.234","elite","AS132203","JP","Shenzhen Tencent Computer Systems Company Limited","225","Tencent Cloud Computing","443","socks5","3798","2","2024-07-06T23:57:29.300Z","77","5743","7432"
"86.48.13.95","elite","AS136787","JP","Tefincom S.A.","289","Packethub S.A","3128","socks5","2219","2","2024-07-06T23:56:44.497Z","100","7360","7389"
"165.225.110.77","elite","AS53813","JP","ZSCALER, INC.","278","Zscaler, Inc.","10605","socks4","1693","1","2024-07-06T23:52:08.394Z","96","7068","7336"
"126.153.202.179","elite","AS17676","JP","Softbank BB Corp.","251","SOFTBANK Corp","3128","socks4","1091","1","2024-07-06T23:51:41.791Z","100","633","633"
"160.16.125.237","elite","AS9370","JP","SAKURA Internet Inc.","288","SAKURA Internet Inc.","3030","socks5","5610","1","2024-07-06T23:42:39.196Z","100","7351","7360"
"43.153.172.98","elite","AS132203","JP","Shenzhen Tencent Computer Systems Company Limited","233","Tencent Cloud Computing","443","socks5","73","1","2024-07-06T23:40:36.901Z","89","6627","7479"
"43.153.171.204","elite","AS132203","JP","Shenzhen Tencent Computer Systems Company Limited","283","Tencent Cloud Computing","443","socks4","135","79","2024-07-06T23:38:34.104Z","93","6926","7441"
"140.83.52.96","elite","AS31898","JP","Oracle Corporation","256","Oracle Cloud Infrastructure (ap-osaka-1)","41379","socks4","769","82","2024-07-06T23:38:15.300Z","77","5729","7455"
"43.153.174.106","elite","AS132203","JP","Shenzhen Tencent Computer Systems Company Limited","288","Tencent Cloud Computing","443","socks4","5108","196","2024-07-06T23:36:54.501Z","67","4954","7445"
"43.153.174.197","elite","AS132203","JP","Shenzhen Tencent Computer Systems Company Limited","253","Tencent Cloud Computing","443","socks5","73","3","2024-07-06T23:35:33.195Z","99","7334","7417"
"43.153.173.244","elite","AS132203","JP","Shenzhen Tencent Computer Systems Company Limited","291","Tencent Cloud Computing","443","socks4","74","1","2024-07-06T23:30:51.197Z","75","5621","7475"
"43.153.177.147","elite","AS132203","JP","Shenzhen Tencent Computer Systems Company Limited","253","Tencent Cloud Computing","443","socks4","72","1","2024-07-06T23:26:51.305Z","83","6146","7375"
"160.86.242.23","elite","AS2527","JP","Sony Network Communications Inc","282","Sony Network Communications Inc.","8080","http","630","23086","2024-07-06T23:25:32.995Z","100","49","49"
"43.153.170.84","elite","AS132203","JP","Shenzhen Tencent Computer Systems Company Limited","232","Tencent Cloud Computing","443","socks5","2694","82","2024-07-06T23:24:20.407Z","84","6317","7493"
"150.230.96.150","elite","AS31898","JP","Oracle Corporation","236","Oracle Cloud Infrastructure (ap-tokyo-1)","19291","socks4","73","1","2024-07-06T23:22:51.297Z","99","7438","7478"
"147.161.201.50","elite","AS53813","JP","Zscaler, Inc.","284","Zscaler TYO4","9480","socks4","703","4","2024-07-06T23:20:52.599Z","100","513","513"
"43.153.175.132","elite","AS132203","JP","Shenzhen Tencent Computer Systems Company Limited","230","Tencent Cloud Computing","443","socks5","460","4","2024-07-06T23:18:17.295Z","76","5652","7408"
"205.177.85.130","elite","AS3491","JP","CDS Global Cloud Co., Ltd","241","PCCW Global, Inc.","39593","socks4","497","2","2024-07-06T23:13:29.404Z","99","724","730"
"126.70.140.73","elite","AS17676","JP","Softbank BB Corp.","289","SOFTBANK Corp","80","socks4","70","1","2024-07-06T23:06:44.707Z","100","7420","7424"
"167.103.12.110","elite","AS53813","JP","ZSCALER, INC.","283","Zscaler Tyo5","11194","http","1894","31887","2024-07-06T23:01:39.591Z","100","49","49"
"140.83.52.194","elite","AS31898","JP","Oracle Corporation","280","Oracle Cloud Infrastructure (ap-osaka-1)","31898","socks5","1786","1","2024-07-06T23:01:22.295Z","61","4504","7385"
"43.153.170.206","elite","AS132203","JP","Shenzhen Tencent Computer Systems Company Limited","232","Tencent Cloud Computing","13220","socks4","3714","1","2024-07-06T23:00:50.499Z","98","7258","7424"
"160.16.233.90","elite","AS9370","JP","SAKURA Internet Inc.","286","SAKURA","3128","socks4","586","2","2024-07-06T22:59:24.494Z","96","7074","7402"
"136.226.238.174","elite","AS53813","JP","ZSCALER, INC.","241","Zscaler, Inc","11197","http","2204","21284","2024-07-06T22:53:06.506Z","96","47","49"
"167.103.10.122","elite","AS53813","JP","ZSCALER, INC.","243","Zscaler Tyo5","11194","http","663","21689","2024-07-06T22:53:06.500Z","100","48","48"
"139.162.100.214","elite","AS63949","JP","Akamai Technologies, Inc.","253","Linode, LLC","18199","socks4","71","1","2024-07-06T22:44:57.902Z","98","7235","7381"
"43.163.222.156","elite","AS132203","JP","Shenzhen Tencent Computer Systems Company Limited","282","Tencent Cloud Computing (Beijing) Co., Ltd","15673","socks5","1208","1","2024-07-06T22:29:37.101Z","100","703","706"
"160.251.6.106","elite","AS7506","JP","GMO Internet Group, Inc.","227","interQ","10008","socks4","981","2","2024-07-06T22:28:09.305Z","97","7209","7403"
"43.153.177.137","elite","AS132203","JP","Shenzhen Tencent Computer Systems Company Limited","251","Tencent Cloud Computing","13220","socks4","1696","1","2024-07-06T22:25:33.588Z","98","7259","7401"
"133.18.234.13","elite","AS24282","JP","KAGOYA JAPAN Inc.","284","N/A","80","http","528","13606","2024-07-06T22:24:08.089Z","100","48","48"
"172.104.67.157","elite","AS63949","JP","Akamai Technologies","259","Linode","9050","socks5","4499","1","2024-07-06T22:21:27.506Z","93","6843","7344"
"43.153.172.76","elite","AS132203","JP","Shenzhen Tencent Computer Systems Company Limited","246","Tencent Cloud Computing","443","socks5","5092","1","2024-07-06T22:15:07.696Z","97","7152","7389"
"167.103.10.106","elite","AS53813","JP","ZSCALER, INC.","283","Zscaler Tyo5","11197","http","4414","26409","2024-07-06T22:15:06.499Z","100","48","48"
"167.179.113.181","elite","AS20473","JP","The Constant Company, LLC","284","Choopa, LLC","52333","socks4","904","1","2024-07-06T22:13:06.501Z","99","7388","7438"
"43.153.174.137","elite","AS132203","JP","Shenzhen Tencent Computer Systems Company Limited","258","Tencent Cloud Computing","443","socks5","2808","2","2024-07-06T22:09:42.902Z","99","7203","7293"
"34.146.221.23","elite","AS15169","JP","Google LLC","292","Google Cloud (asia-northeast1)","3128","http","3107","24111","2024-07-06T22:09:42.493Z","42","11","26"
"43.153.177.93","elite","AS132203","JP","Shenzhen Tencent Computer Systems Company Limited","255","Tencent Cloud Computing","443","socks4","121","1","2024-07-06T22:06:35.800Z","17","1248","7364"
"161.34.37.88","transparent","AS2514","JP","NTT PC Communications, Inc.","292","NTT PC Communications, Inc.","3128","http","1691","18415","2024-07-06T22:03:19.801Z","32","15","47"