[
{"name":"新手必看","url":"https://gitlab.com/xmaec555/my/-/raw/main/ggtw.txt"},
{"name":"台湾电视直播（VIP）","url":"https://gitlab.com/xmaec555/my/-/raw/main/tw.txt"},
{"name":"央卫台直播","url":"https://cctv.hx208.top/merged_output.txt"}
]